%YAML 1.1
%TAG !u! tag:unity3d.com,2011:
--- !u!1 &100000
GameObject:
  m_ObjectHideFlags: 0
  m_PrefabParentObject: {fileID: 0}
  m_PrefabInternal: {fileID: 100100000}
  serializedVersion: 4
  m_Component:
  - 4: {fileID: 400000}
  - 114: {fileID: 11400000}
  m_Layer: 0
  m_Name: SprCollEndless
  m_TagString: Untagged
  m_Icon: {fileID: 0}
  m_NavMeshLayer: 0
  m_StaticEditorFlags: 0
  m_IsActive: 1
--- !u!4 &400000
Transform:
  m_ObjectHideFlags: 1
  m_PrefabParentObject: {fileID: 0}
  m_PrefabInternal: {fileID: 100100000}
  m_GameObject: {fileID: 100000}
  m_LocalRotation: {x: 0, y: 0, z: 0, w: 1}
  m_LocalPosition: {x: 0, y: 0, z: 0}
  m_LocalScale: {x: 1, y: 1, z: 1}
  m_Children: []
  m_Father: {fileID: 0}
--- !u!114 &11400000
MonoBehaviour:
  m_ObjectHideFlags: 1
  m_PrefabParentObject: {fileID: 0}
  m_PrefabInternal: {fileID: 100100000}
  m_GameObject: {fileID: 100000}
  m_Enabled: 1
  m_EditorHideFlags: 0
  m_Script: {fileID: 11500000, guid: d546f34a90531a14eaba82a43b05b86b, type: 3}
  m_Name: 
  m_EditorClassIdentifier: 
  version: 3
  materialIdsValid: 1
  needMaterialInstance: 0
  spriteDefinitions:
  - name: obstacle_1_1_1
    boundsData:
    - {x: .0078125, y: 0, z: 0}
    - {x: .390625, y: .287499994, z: 0}
    untrimmedBoundsData:
    - {x: 0, y: 0, z: 0}
    - {x: .46875, y: .46875, z: 0}
    texelSize: {x: .00312500005, y: .00312500005}
    positions:
    - {x: -.1875, y: -.143749997, z: 0}
    - {x: .203125, y: -.143749997, z: 0}
    - {x: -.1875, y: .143749997, z: 0}
    - {x: .203125, y: .143749997, z: 0}
    normals: []
    tangents: []
    uvs:
    - {x: .755860329, y: .259766102}
    - {x: .877928734, y: .259766102}
    - {x: .755860329, y: .304687023}
    - {x: .877928734, y: .304687023}
    indices: 000000000300000001000000020000000300000000000000
    material: {fileID: 2100000, guid: 21b1bf2b531434283aca9578589a6c2f, type: 2}
    materialId: 0
    sourceTextureGUID: 27745b64758054c278b33e78e10f54bc
    extractRegion: 0
    regionX: 0
    regionY: 0
    regionW: 0
    regionH: 0
    flipped: 0
    complexGeometry: 0
    physicsEngine: 0
    colliderType: 0
    colliderVertices: []
    colliderIndicesFwd: 
    colliderIndicesBack: 
    colliderConvex: 0
    colliderSmoothSphereCollisions: 0
    polygonCollider2D: []
    edgeCollider2D: []
    attachPoints: []
  - name: obstacle_1_1_2
    boundsData:
    - {x: .00312499702, y: .00312499702, z: 0}
    - {x: .424999982, y: .256249994, z: 0}
    untrimmedBoundsData:
    - {x: 0, y: 0, z: 0}
    - {x: .46875, y: .46875, z: 0}
    texelSize: {x: .00312500005, y: .00312500005}
    positions:
    - {x: -.209374994, y: -.125, z: 0}
    - {x: .215624988, y: -.125, z: 0}
    - {x: -.209374994, y: .131249994, z: 0}
    - {x: .215624988, y: .131249994, z: 0}
    normals: []
    tangents: []
    uvs:
    - {x: .913086891, y: .134277835}
    - {x: .913086891, y: .200683102}
    - {x: .993163109, y: .134277835}
    - {x: .993163109, y: .200683102}
    indices: 000000000300000001000000020000000300000000000000
    material: {fileID: 2100000, guid: 21b1bf2b531434283aca9578589a6c2f, type: 2}
    materialId: 0
    sourceTextureGUID: a5816fde36669453ba814eb91fc5ace8
    extractRegion: 0
    regionX: 0
    regionY: 0
    regionW: 0
    regionH: 0
    flipped: 1
    complexGeometry: 0
    physicsEngine: 0
    colliderType: 0
    colliderVertices: []
    colliderIndicesFwd: 
    colliderIndicesBack: 
    colliderConvex: 0
    colliderSmoothSphereCollisions: 0
    polygonCollider2D: []
    edgeCollider2D: []
    attachPoints: []
  - name: obstacle_1_1_4
    boundsData:
    - {x: .00312499702, y: .00312499702, z: 0}
    - {x: .424999982, y: .256249994, z: 0}
    untrimmedBoundsData:
    - {x: 0, y: 0, z: 0}
    - {x: .46875, y: .46875, z: 0}
    texelSize: {x: .00312500005, y: .00312500005}
    positions:
    - {x: -.209374994, y: -.125, z: 0}
    - {x: .215624988, y: -.125, z: 0}
    - {x: -.209374994, y: .131249994, z: 0}
    - {x: .215624988, y: .131249994, z: 0}
    normals: []
    tangents: []
    uvs:
    - {x: .913086891, y: .134277835}
    - {x: .913086891, y: .200683102}
    - {x: .993163109, y: .134277835}
    - {x: .993163109, y: .200683102}
    indices: 000000000300000001000000020000000300000000000000
    material: {fileID: 2100000, guid: 21b1bf2b531434283aca9578589a6c2f, type: 2}
    materialId: 0
    sourceTextureGUID: db7b1969299984a9c8a5d442f5c570fb
    extractRegion: 0
    regionX: 0
    regionY: 0
    regionW: 0
    regionH: 0
    flipped: 1
    complexGeometry: 0
    physicsEngine: 0
    colliderType: 0
    colliderVertices: []
    colliderIndicesFwd: 
    colliderIndicesBack: 
    colliderConvex: 0
    colliderSmoothSphereCollisions: 0
    polygonCollider2D: []
    edgeCollider2D: []
    attachPoints: []
  - name: obstacle_1_1_3
    boundsData:
    - {x: .00312500447, y: .00156249851, z: 0}
    - {x: .381250024, y: .296875, z: 0}
    untrimmedBoundsData:
    - {x: 0, y: 0, z: 0}
    - {x: .46875, y: .46875, z: 0}
    texelSize: {x: .00312500005, y: .00312500005}
    positions:
    - {x: -.1875, y: -.146874994, z: 0}
    - {x: .193750009, y: -.146874994, z: 0}
    - {x: -.1875, y: .149999991, z: 0}
    - {x: .193750009, y: .149999991, z: 0}
    normals: []
    tangents: []
    uvs:
    - {x: .897461891, y: .20263721}
    - {x: .897461891, y: .262206554}
    - {x: .990233421, y: .20263721}
    - {x: .990233421, y: .262206554}
    indices: 000000000300000001000000020000000300000000000000
    material: {fileID: 2100000, guid: 21b1bf2b531434283aca9578589a6c2f, type: 2}
    materialId: 0
    sourceTextureGUID: df6d21bb00dc045048d9e32f5242207d
    extractRegion: 0
    regionX: 0
    regionY: 0
    regionW: 0
    regionH: 0
    flipped: 1
    complexGeometry: 0
    physicsEngine: 0
    colliderType: 0
    colliderVertices: []
    colliderIndicesFwd: 
    colliderIndicesBack: 
    colliderConvex: 0
    colliderSmoothSphereCollisions: 0
    polygonCollider2D: []
    edgeCollider2D: []
    attachPoints: []
  - name: platform_moving_1_1
    boundsData:
    - {x: 0, y: 0, z: 0}
    - {x: .625, y: .3125, z: 0}
    untrimmedBoundsData:
    - {x: 0, y: 0, z: 0}
    - {x: .625, y: .3125, z: 0}
    texelSize: {x: .00312500005, y: .00312500005}
    positions:
    - {x: -.3125, y: -.15625, z: 0}
    - {x: .3125, y: -.15625, z: 0}
    - {x: -.3125, y: .15625, z: 0}
    - {x: .3125, y: .15625, z: 0}
    normals: []
    tangents: []
    uvs:
    - {x: .755860329, y: .0834965855}
    - {x: .951170921, y: .0834965855}
    - {x: .755860329, y: .132323727}
    - {x: .951170921, y: .132323727}
    indices: 000000000300000001000000020000000300000000000000
    material: {fileID: 2100000, guid: 21b1bf2b531434283aca9578589a6c2f, type: 2}
    materialId: 0
    sourceTextureGUID: 017748ea632b64f99bcd4ee78358c015
    extractRegion: 0
    regionX: 0
    regionY: 0
    regionW: 0
    regionH: 0
    flipped: 0
    complexGeometry: 0
    physicsEngine: 0
    colliderType: 0
    colliderVertices: []
    colliderIndicesFwd: 
    colliderIndicesBack: 
    colliderConvex: 0
    colliderSmoothSphereCollisions: 0
    polygonCollider2D: []
    edgeCollider2D: []
    attachPoints: []
  - name: platform_1_1
    boundsData:
    - {x: 0, y: 0, z: 0}
    - {x: .356250018, y: .3125, z: 0}
    untrimmedBoundsData:
    - {x: 0, y: 0, z: 0}
    - {x: .356250018, y: .3125, z: 0}
    texelSize: {x: .00312500005, y: .00312500005}
    positions:
    - {x: -.178125009, y: -.15625, z: 0}
    - {x: .178125009, y: -.15625, z: 0}
    - {x: -.178125009, y: .15625, z: 0}
    - {x: .178125009, y: .15625, z: 0}
    normals: []
    tangents: []
    uvs:
    - {x: .881836891, y: .264160633}
    - {x: .993163109, y: .264160633}
    - {x: .881836891, y: .312987804}
    - {x: .993163109, y: .312987804}
    indices: 000000000300000001000000020000000300000000000000
    material: {fileID: 2100000, guid: 21b1bf2b531434283aca9578589a6c2f, type: 2}
    materialId: 0
    sourceTextureGUID: d04abc9cbc61e461bb8828e379d03f1b
    extractRegion: 0
    regionX: 0
    regionY: 0
    regionW: 0
    regionH: 0
    flipped: 0
    complexGeometry: 0
    physicsEngine: 0
    colliderType: 0
    colliderVertices: []
    colliderIndicesFwd: 
    colliderIndicesBack: 
    colliderConvex: 0
    colliderSmoothSphereCollisions: 0
    polygonCollider2D: []
    edgeCollider2D: []
    attachPoints: []
  - name: toilet_paper
    boundsData:
    - {x: .0109375045, y: .00468750671, z: 0}
    - {x: .271875024, y: .246875018, z: 0}
    untrimmedBoundsData:
    - {x: 0, y: 0, z: 0}
    - {x: .3125, y: .3125, z: 0}
    texelSize: {x: .00312500005, y: .00312500005}
    positions:
    - {x: -.125, y: -.118749999, z: 0}
    - {x: .146875009, y: -.118749999, z: 0}
    - {x: -.125, y: .128125012, z: 0}
    - {x: .146875009, y: .128125012, z: 0}
    normals: []
    tangents: []
    uvs:
    - {x: .755860329, y: .354004383}
    - {x: .840819359, y: .354004383}
    - {x: .755860329, y: .392577648}
    - {x: .840819359, y: .392577648}
    indices: 000000000300000001000000020000000300000000000000
    material: {fileID: 2100000, guid: 21b1bf2b531434283aca9578589a6c2f, type: 2}
    materialId: 0
    sourceTextureGUID: 315c712d012b4447c92f7c9ed4c4e274
    extractRegion: 0
    regionX: 0
    regionY: 0
    regionW: 0
    regionH: 0
    flipped: 0
    complexGeometry: 0
    physicsEngine: 0
    colliderType: 0
    colliderVertices: []
    colliderIndicesFwd: 
    colliderIndicesBack: 
    colliderConvex: 0
    colliderSmoothSphereCollisions: 0
    polygonCollider2D: []
    edgeCollider2D: []
    attachPoints: []
  - name: Master-1024x768
    boundsData:
    - {x: 0, y: 0, z: 0}
    - {x: 3.20000005, y: 2.4000001, z: 0}
    untrimmedBoundsData:
    - {x: 0, y: 0, z: 0}
    - {x: 3.20000005, y: 2.4000001, z: 0}
    texelSize: {x: .00312500005, y: .00312500005}
    positions:
    - {x: -1.60000002, y: -1.20000005, z: 0}
    - {x: 1.60000002, y: -1.20000005, z: 0}
    - {x: -1.60000002, y: 1.20000005, z: 0}
    - {x: 1.60000002, y: 1.20000005, z: 0}
    normals: []
    tangents: []
    uvs:
    - {x: .00195410149, y: .000977050746}
    - {x: .00195410149, y: .500976086}
    - {x: .751952171, y: .000977050746}
    - {x: .751952171, y: .500976086}
    indices: 000000000300000001000000020000000300000000000000
    material: {fileID: 2100000, guid: 21b1bf2b531434283aca9578589a6c2f, type: 2}
    materialId: 0
    sourceTextureGUID: 7a4d06a4e68ab461d81cf33c520ca080
    extractRegion: 0
    regionX: 0
    regionY: 0
    regionW: 0
    regionH: 0
    flipped: 1
    complexGeometry: 0
    physicsEngine: 0
    colliderType: 0
    colliderVertices: []
    colliderIndicesFwd: 
    colliderIndicesBack: 
    colliderConvex: 0
    colliderSmoothSphereCollisions: 0
    polygonCollider2D: []
    edgeCollider2D: []
    attachPoints: []
  - name: bg_1_1
    boundsData:
    - {x: 0, y: 0, z: 0}
    - {x: 1.77499998, y: 1, z: 0}
    untrimmedBoundsData:
    - {x: 0, y: 0, z: 0}
    - {x: 1.77499998, y: 1, z: 0}
    texelSize: {x: .00312500005, y: .00312500005}
    positions:
    - {x: -.887499988, y: -.5, z: 0}
    - {x: .887499988, y: -.5, z: 0}
    - {x: -.887499988, y: .5, z: 0}
    - {x: .887499988, y: .5, z: 0}
    normals: []
    tangents: []
    uvs:
    - {x: .00195410149, y: .750977039}
    - {x: .556639671, y: .750977039}
    - {x: .00195410149, y: .907226086}
    - {x: .556639671, y: .907226086}
    indices: 000000000300000001000000020000000300000000000000
    material: {fileID: 2100000, guid: 21b1bf2b531434283aca9578589a6c2f, type: 2}
    materialId: 0
    sourceTextureGUID: e20ed734887584ce5b7cbf7d37161cf7
    extractRegion: 0
    regionX: 0
    regionY: 0
    regionW: 0
    regionH: 0
    flipped: 0
    complexGeometry: 0
    physicsEngine: 0
    colliderType: 0
    colliderVertices: []
    colliderIndicesFwd: 
    colliderIndicesBack: 
    colliderConvex: 0
    colliderSmoothSphereCollisions: 0
    polygonCollider2D: []
    edgeCollider2D: []
    attachPoints: []
  - name: panda_1_0
    boundsData:
    - {x: -.010937497, y: .0109375045, z: 0}
    - {x: .284375012, y: .284375012, z: 0}
    untrimmedBoundsData:
    - {x: 0, y: 0, z: 0}
    - {x: .3125, y: .3125, z: 0}
    texelSize: {x: .00312500005, y: .00312500005}
    positions:
    - {x: -.153125003, y: -.131249994, z: 0}
    - {x: .131250009, y: -.131249994, z: 0}
    - {x: -.153125003, y: .153125003, z: 0}
    - {x: .131250009, y: .153125003, z: 0}
    normals: []
    tangents: []
    uvs:
    - {x: .857422829, y: .314941883}
    - {x: .946288109, y: .314941883}
    - {x: .857422829, y: .359374523}
    - {x: .946288109, y: .359374523}
    indices: 000000000300000001000000020000000300000000000000
    material: {fileID: 2100000, guid: 21b1bf2b531434283aca9578589a6c2f, type: 2}
    materialId: 0
    sourceTextureGUID: 0984e2b5ea9884ae6874c5b40d18a292
    extractRegion: 0
    regionX: 0
    regionY: 0
    regionW: 0
    regionH: 0
    flipped: 0
    complexGeometry: 0
    physicsEngine: 0
    colliderType: 0
    colliderVertices: []
    colliderIndicesFwd: 
    colliderIndicesBack: 
    colliderConvex: 0
    colliderSmoothSphereCollisions: 0
    polygonCollider2D: []
    edgeCollider2D: []
    attachPoints: []
  - name: panda_death
    boundsData:
    - {x: -.00156249851, y: .0140625015, z: 0}
    - {x: .396875024, y: .440625012, z: 0}
    untrimmedBoundsData:
    - {x: 0, y: 0, z: 0}
    - {x: .46875, y: .46875, z: 0}
    texelSize: {x: .00312500005, y: .00312500005}
    positions:
    - {x: -.200000003, y: -.206249997, z: 0}
    - {x: .196875006, y: -.206249997, z: 0}
    - {x: -.200000003, y: .234375, z: 0}
    - {x: .196875006, y: .234375, z: 0}
    normals: []
    tangents: []
    uvs:
    - {x: .755860329, y: .195801273}
    - {x: .755860329, y: .257812023}
    - {x: .893553734, y: .195801273}
    - {x: .893553734, y: .257812023}
    indices: 000000000300000001000000020000000300000000000000
    material: {fileID: 2100000, guid: 21b1bf2b531434283aca9578589a6c2f, type: 2}
    materialId: 0
    sourceTextureGUID: f709f02ae54304ffe9fe26f36ece613f
    extractRegion: 0
    regionX: 0
    regionY: 0
    regionW: 0
    regionH: 0
    flipped: 1
    complexGeometry: 0
    physicsEngine: 0
    colliderType: 0
    colliderVertices: []
    colliderIndicesFwd: 
    colliderIndicesBack: 
    colliderConvex: 0
    colliderSmoothSphereCollisions: 0
    polygonCollider2D: []
    edgeCollider2D: []
    attachPoints: []
  - name: death_poop
    boundsData:
    - {x: -.00156249106, y: .00156249106, z: 0}
    - {x: .553125024, y: .515625, z: 0}
    untrimmedBoundsData:
    - {x: .00156250596, y: -.00156250596, z: 0}
    - {x: .690625012, y: .584375024, z: 0}
    texelSize: {x: .00312500005, y: .00312500005}
    positions:
    - {x: -.278124988, y: -.256250024, z: 0}
    - {x: .275000006, y: -.256250024, z: 0}
    - {x: -.278124988, y: .259375006, z: 0}
    - {x: .275000006, y: .259375006, z: 0}
    normals: []
    tangents: []
    uvs:
    - {x: .755860329, y: .000977050746}
    - {x: .928709984, y: .000977050746}
    - {x: .755860329, y: .081542477}
    - {x: .928709984, y: .081542477}
    indices: 000000000300000001000000020000000300000000000000
    material: {fileID: 2100000, guid: 21b1bf2b531434283aca9578589a6c2f, type: 2}
    materialId: 0
    sourceTextureGUID: da489d60410dc49f09c7b642d2ab51e0
    extractRegion: 0
    regionX: 0
    regionY: 0
    regionW: 0
    regionH: 0
    flipped: 0
    complexGeometry: 0
    physicsEngine: 0
    colliderType: 0
    colliderVertices: []
    colliderIndicesFwd: 
    colliderIndicesBack: 
    colliderConvex: 0
    colliderSmoothSphereCollisions: 0
    polygonCollider2D: []
    edgeCollider2D: []
    attachPoints: []
  - name: result-512
    boundsData:
    - {x: .00156250596, y: .0124999881, z: 0}
    - {x: 1.5406251, y: 1.57500005, z: 0}
    untrimmedBoundsData:
    - {x: 0, y: 0, z: 0}
    - {x: 1.60000002, y: 1.60000002, z: 0}
    texelSize: {x: .00312500005, y: .00312500005}
    positions:
    - {x: -.768750012, y: -.775000036, z: 0}
    - {x: .771875024, y: -.775000036, z: 0}
    - {x: -.768750012, y: .800000012, z: 0}
    - {x: .771875024, y: .800000012, z: 0}
    normals: []
    tangents: []
    uvs:
    - {x: .00195410149, y: .502930164}
    - {x: .483397454, y: .502930164}
    - {x: .00195410149, y: .749022961}
    - {x: .483397454, y: .749022961}
    indices: 000000000300000001000000020000000300000000000000
    material: {fileID: 2100000, guid: 21b1bf2b531434283aca9578589a6c2f, type: 2}
    materialId: 0
    sourceTextureGUID: 0987507de99b4492886123d68268a1dd
    extractRegion: 0
    regionX: 0
    regionY: 0
    regionW: 0
    regionH: 0
    flipped: 0
    complexGeometry: 0
    physicsEngine: 0
    colliderType: 0
    colliderVertices: []
    colliderIndicesFwd: 
    colliderIndicesBack: 
    colliderConvex: 0
    colliderSmoothSphereCollisions: 0
    polygonCollider2D: []
    edgeCollider2D: []
    attachPoints: []
  - name: tutorial_touch
    boundsData:
    - {x: -.00156249851, y: -.00312500447, z: 0}
    - {x: .490625024, y: .381249964, z: 0}
    untrimmedBoundsData:
    - {x: 0, y: 0, z: 0}
    - {x: .525000036, y: .412499994, z: 0}
    texelSize: {x: .00312500005, y: .00312500005}
    positions:
    - {x: -.246875018, y: -.193749994, z: 0}
    - {x: .243750021, y: -.193749994, z: 0}
    - {x: -.246875018, y: .187499985, z: 0}
    - {x: .243750021, y: .187499985, z: 0}
    normals: []
    tangents: []
    uvs:
    - {x: .755860329, y: .134277835}
    - {x: .909178734, y: .134277835}
    - {x: .755860329, y: .193847165}
    - {x: .909178734, y: .193847165}
    indices: 000000000300000001000000020000000300000000000000
    material: {fileID: 2100000, guid: 21b1bf2b531434283aca9578589a6c2f, type: 2}
    materialId: 0
    sourceTextureGUID: 2d2e39acdc8aa4728ba2dcd4c76b96f6
    extractRegion: 0
    regionX: 0
    regionY: 0
    regionW: 0
    regionH: 0
    flipped: 0
    complexGeometry: 0
    physicsEngine: 0
    colliderType: 0
    colliderVertices: []
    colliderIndicesFwd: 
    colliderIndicesBack: 
    colliderConvex: 0
    colliderSmoothSphereCollisions: 0
    polygonCollider2D: []
    edgeCollider2D: []
    attachPoints: []
  - name: button_next
    boundsData:
    - {x: .00156250596, y: 0, z: 0}
    - {x: .290625006, y: .3125, z: 0}
    untrimmedBoundsData:
    - {x: .00156250596, y: 0, z: 0}
    - {x: .290625006, y: .3125, z: 0}
    texelSize: {x: .00312500005, y: .00312500005}
    positions:
    - {x: -.143749997, y: -.15625, z: 0}
    - {x: .146875009, y: -.15625, z: 0}
    - {x: -.143749997, y: .15625, z: 0}
    - {x: .146875009, y: .15625, z: 0}
    normals: []
    tangents: []
    uvs:
    - {x: .755860329, y: .306641102}
    - {x: .755860329, y: .352050304}
    - {x: .853514671, y: .306641102}
    - {x: .853514671, y: .352050304}
    indices: 000000000300000001000000020000000300000000000000
    material: {fileID: 2100000, guid: 21b1bf2b531434283aca9578589a6c2f, type: 2}
    materialId: 0
    sourceTextureGUID: 4fa62606f74584646bd8c346a2714942
    extractRegion: 0
    regionX: 0
    regionY: 0
    regionW: 0
    regionH: 0
    flipped: 1
    complexGeometry: 0
    physicsEngine: 0
    colliderType: 0
    colliderVertices: []
    colliderIndicesFwd: 
    colliderIndicesBack: 
    colliderConvex: 0
    colliderSmoothSphereCollisions: 0
    polygonCollider2D: []
    edgeCollider2D: []
    attachPoints: []
  - name: white
    boundsData:
    - {x: 0, y: 0, z: 0}
    - {x: .100000001, y: .100000001, z: 0}
    untrimmedBoundsData:
    - {x: 0, y: 0, z: 0}
    - {x: .100000001, y: .100000001, z: 0}
    texelSize: {x: .00312500005, y: .00312500005}
    positions:
    - {x: -.0500000007, y: -.0500000007, z: 0}
    - {x: .0500000007, y: -.0500000007, z: 0}
    - {x: -.0500000007, y: .0500000007, z: 0}
    - {x: .0500000007, y: .0500000007, z: 0}
    normals: []
    tangents: []
    uvs:
    - {x: .932618141, y: .000977050746}
    - {x: .963866234, y: .000977050746}
    - {x: .932618141, y: .0166010745}
    - {x: .963866234, y: .0166010745}
    indices: 000000000300000001000000020000000300000000000000
    material: {fileID: 2100000, guid: 21b1bf2b531434283aca9578589a6c2f, type: 2}
    materialId: 0
    sourceTextureGUID: a193bbb0f18f14bacb0ca5cd169d7c21
    extractRegion: 0
    regionX: 0
    regionY: 0
    regionW: 0
    regionH: 0
    flipped: 0
    complexGeometry: 0
    physicsEngine: 0
    colliderType: 0
    colliderVertices: []
    colliderIndicesFwd: 
    colliderIndicesBack: 
    colliderConvex: 0
    colliderSmoothSphereCollisions: 0
    polygonCollider2D: []
    edgeCollider2D: []
    attachPoints: []
  premultipliedAlpha: 0
  material: {fileID: 0}
  materials:
  - {fileID: 2100000, guid: 21b1bf2b531434283aca9578589a6c2f, type: 2}
  textures:
  - {fileID: 2800000, guid: 660711e6ed370443cb8c39a019268c97, type: 3}
  pngTextures: []
  materialPngTextureId: 00000000
  textureFilterMode: 1
  textureMipMaps: 0
  allowMultipleAtlases: 0
  spriteCollectionGUID: ba7d1c70ad8484260ac4062211d146d5
  spriteCollectionName: SprCollEndless
  assetName: 
  loadable: 0
  invOrthoSize: 1
  halfTargetHeight: 320
  buildKey: 1347789996
  dataGuid: ac7600aa0e25343bfb166a5f832373f1
  managedSpriteCollection: 0
  hasPlatformData: 0
  spriteCollectionPlatforms: []
  spriteCollectionPlatformGUIDs: []
--- !u!1001 &100100000
Prefab:
  m_ObjectHideFlags: 1
  serializedVersion: 2
  m_Modification:
    m_TransformParent: {fileID: 0}
    m_Modifications: []
    m_RemovedComponents: []
  m_ParentPrefab: {fileID: 0}
  m_RootGameObject: {fileID: 100000}
  m_IsPrefabParent: 1
  m_IsExploded: 1
