%YAML 1.1
%TAG !u! tag:unity3d.com,2011:
--- !u!1 &100000
GameObject:
  m_ObjectHideFlags: 0
  m_PrefabParentObject: {fileID: 0}
  m_PrefabInternal: {fileID: 100100000}
  serializedVersion: 3
  m_Component:
  - 4: {fileID: 400000}
  - 114: {fileID: 11400000}
  m_Layer: 0
  m_Name: Brady Bunch
  m_TagString: Untagged
  m_Icon: {fileID: 0}
  m_NavMeshLayer: 0
  m_StaticEditorFlags: 0
  m_IsActive: 0
--- !u!4 &400000
Transform:
  m_ObjectHideFlags: 1
  m_PrefabParentObject: {fileID: 0}
  m_PrefabInternal: {fileID: 100100000}
  m_GameObject: {fileID: 100000}
  m_LocalRotation: {x: 0, y: 0, z: 0, w: 1}
  m_LocalPosition: {x: 0, y: 0, z: 0}
  m_LocalScale: {x: 1, y: 1, z: 1}
  m_Children: []
  m_Father: {fileID: 0}
--- !u!114 &11400000
MonoBehaviour:
  m_ObjectHideFlags: 1
  m_PrefabParentObject: {fileID: 0}
  m_PrefabInternal: {fileID: 100100000}
  m_GameObject: {fileID: 100000}
  m_Enabled: 1
  m_EditorHideFlags: 0
  m_Script: {fileID: 11500000, guid: 35be0f790243a0c46b505c114d7122ae, type: 1}
  m_Name: 
  bmFont: {fileID: 4900000, guid: be7abdba92cfc044c831deb45528e796, type: 1}
  material: {fileID: 2100000, guid: 1314aaa28b2af774cb2d9be5b7f7ba47, type: 2}
  texture: {fileID: 2800000, guid: 58d83a6db60cda147a52521ce3003f12, type: 1}
  gradientTexture: {fileID: 0}
  dupeCaps: 0
  flipTextureY: 0
  proxyFont: 0
  useTk2dCamera: 0
  targetHeight: 640
  targetOrthoSize: 1
  gradientCount: 1
  manageMaterial: 1
  loadable: 0
  charPadX: 0
  data: {fileID: 11400000, guid: 8d1df1c493c4b014a8105560cee1aef2, type: 2}
--- !u!1001 &100100000
Prefab:
  m_ObjectHideFlags: 1
  serializedVersion: 2
  m_Modification:
    m_TransformParent: {fileID: 0}
    m_Modifications: []
    m_RemovedComponents: []
  m_ParentPrefab: {fileID: 0}
  m_RootGameObject: {fileID: 100000}
  m_IsPrefabParent: 1
  m_IsExploded: 1
